<?xml version="1.0" encoding="utf-8"?>
<!-- Generator: Adobe Illustrator 19.1.0, SVG Export Plug-In . SVG Version: 6.00 Build 0)  -->
<svg version="1.1" id="Layer_1" xmlns="http://www.w3.org/2000/svg" xmlns:xlink="http://www.w3.org/1999/xlink" x="0px" y="0px"
	 width="24.6px" height="24.6px" viewBox="0 0 24.6 24.6" style="enable-background:new 0 0 24.6 24.6;" xml:space="preserve">
<style type="text/css">
	.st0{fill:#6BACDF;}
</style>
<path id="XMLID_29_" class="st0" d="M24.2,4.8c-0.9,0.4-1.9,0.7-2.9,0.8c1-0.6,1.8-1.6,2.2-2.8c-1,0.6-2,1-3.2,1.2
	c-0.9-1-2.2-1.6-3.6-1.6c-2.7,0-5,2.2-5,5c0,0.4,0,0.8,0.1,1.1C7.8,8.4,4.1,6.4,1.7,3.4C1.3,4.1,1,5,1,5.9C1,7.6,1.9,9.1,3.2,10
	C2.4,10,1.6,9.8,1,9.4c0,0,0,0,0,0.1c0,2.4,1.7,4.4,4,4.9c-0.4,0.1-0.9,0.2-1.3,0.2c-0.3,0-0.6,0-0.9-0.1c0.6,2,2.5,3.4,4.6,3.5
	C5.7,19.2,3.5,20,1.2,20c-0.4,0-0.8,0-1.2-0.1c2.2,1.4,4.8,2.2,7.6,2.2c9.1,0,14.2-7.6,14.2-14.2c0-0.2,0-0.4,0-0.6
	C22.7,6.7,23.6,5.8,24.2,4.8z"/>
</svg>
